filename,width,height,class,xmin,ymin,xmax,ymax
1002.jpg,360,272,button,106,173,255,211
1019.jpg,360,203,button,214,171,293,194
1021.jpg,360,203,button,213,171,294,194
1025.jpg,300,254,button,22,210,110,235
1031.jpg,300,252,button,184,152,285,190
1042.jpg,300,252,button,132,137,268,176
1049.jpg,300,252,button,20,199,173,236
1052.jpg,300,252,button,8,214,135,244
1077.jpg,300,254,button,192,203,293,241
1084.jpg,300,254,button,148,199,271,237
1090.jpg,300,252,button,74,148,161,179
1095.jpg,300,254,button,193,203,292,241
1123.jpg,300,254,button,193,199,299,230
1133.jpg,360,204,button,146,153,211,173
1140.jpg,300,252,button,164,195,290,224
1144.jpg,300,254,button,94,211,208,246
1153.jpg,300,254,button,161,219,295,247
1155.jpg,300,254,button,160,219,295,247
1156.jpg,300,254,button,162,221,295,248
1175.jpg,300,254,button,171,89,267,120
1196.jpg,300,254,button,192,204,293,241
1222.jpg,300,254,button,102,193,213,225
1228.jpg,360,203,button,196,170,294,197
1229.jpg,360,203,button,195,170,294,197
1231.jpg,360,203,button,195,170,293,196
1236.jpg,300,252,button,76,174,228,210
1256.jpg,300,252,button,182,212,296,245
1257.jpg,300,252,button,182,211,296,244
1258.jpg,300,252,button,183,212,295,244
1259.jpg,300,252,button,182,212,295,244
1272.jpg,300,252,button,59,188,179,230
1280.jpg,298,250,button,155,202,254,235
1288.jpg,300,254,button,14,175,111,199
1307.jpg,300,254,button,10,199,135,230
1310.jpg,360,203,button,150,142,215,162
1332.jpg,360,203,button,215,172,293,193
1333.jpg,360,203,button,215,173,296,196
1334.jpg,300,252,button,78,199,225,230
1341.jpg,300,252,button,179,179,289,208
1345.jpg,300,254,button,100,213,203,247
1346.jpg,1000,1000,button,69,325,386,406
1348.jpg,360,204,button,62,181,113,195
1349.jpg,360,204,button,68,181,117,196
1350.jpg,300,252,button,161,194,278,224
1354.jpg,298,250,button,135,176,262,217
1364.jpg,300,252,button,21,200,130,230
1376.jpg,300,254,button,14,209,121,239
1386.jpg,300,252,button,218,215,292,241
1403.jpg,300,254,button,49,127,130,155
1414.jpg,300,252,button,175,218,293,246
1424.jpg,300,252,button,149,160,226,190
1436.jpg,300,252,button,23,200,132,231
1453.jpg,360,301,button,199,226,346,262
1470.jpg,360,303,button,198,228,345,263
1473.jpg,300,254,button,26,139,274,191
1478.jpg,300,252,button,181,212,296,244
1479.jpg,300,252,button,183,212,295,244
1480.jpg,300,252,button,183,212,294,244
1481.jpg,300,252,button,183,212,294,244
1488.jpg,298,250,button,136,177,261,216
1494.jpg,300,254,button,180,195,293,227
1505.jpg,300,254,button,13,204,130,238
1512.jpg,300,252,button,215,178,284,199
1552.jpg,300,252,button,189,207,286,239
1580.jpg,300,252,button,146,182,294,231
1595.jpg,300,254,button,11,210,149,246
1610.jpg,300,252,button,7,214,136,244
1612.jpg,300,252,button,8,214,136,245
1627.jpg,360,204,button,64,174,134,196
1628.jpg,360,204,button,65,175,135,195
1642.jpg,300,252,button,133,184,283,233
1665.jpg,300,252,button,179,205,271,235
1667.jpg,300,252,button,178,204,272,235
1669.jpg,300,252,button,179,205,270,235
1700.jpg,300,254,button,178,191,292,225
1716.jpg,300,252,button,8,213,135,245
1720.jpg,300,250,button,193,198,269,222
1728.jpg,300,252,button,15,208,144,238
1739.jpg,300,252,button,14,208,152,244
1773.jpg,300,252,button,21,199,172,236
1774.jpg,360,302,button,216,233,327,270
1792.jpg,298,250,button,36,133,160,166
1810.jpg,300,254,button,93,211,210,247
1841.jpg,300,254,button,94,63,215,99
1843.jpg,300,252,button,113,207,298,246
1849.jpg,300,252,button,21,202,163,238
1850.jpg,300,252,button,20,201,163,239
1858.jpg,300,254,button,19,187,132,222
1862.jpg,300,254,button,102,194,213,224
1868.jpg,300,252,button,8,198,133,237
1874.jpg,300,252,button,217,212,293,242
1875.jpg,300,252,button,217,213,292,241
1876.jpg,300,252,button,218,213,292,241
1889.jpg,300,254,button,103,194,211,223
1891.jpg,300,254,button,10,199,135,230
1895.jpg,300,252,button,26,206,144,239
1896.jpg,300,252,button,26,206,145,238
1903.jpg,300,254,button,11,212,108,237
1905.jpg,300,254,button,10,213,109,238
1919.jpg,300,254,button,155,210,288,244
1920.jpg,300,254,button,155,209,288,244
1922.jpg,300,254,button,157,209,288,244
1970.jpg,300,252,button,132,207,287,248
1972.jpg,300,252,button,132,207,286,247
1974.jpg,300,254,button,175,164,277,196
1979.jpg,300,254,button,101,193,212,223
1987.jpg,300,252,button,20,202,164,239
1990.jpg,300,254,button,171,212,289,243
1992.jpg,300,254,button,170,211,288,244
1993.jpg,300,254,button,170,213,289,243
1997.jpg,300,252,button,132,178,279,226
1998.jpg,300,252,button,133,178,280,226
2007.jpg,300,254,button,103,194,211,223
2008.jpg,300,252,button,157,199,271,230
2012.jpg,300,252,button,122,148,270,182
2028.jpg,600,500,button,395,422,546,468
2031.jpg,300,252,button,142,19,300,55
365.jpg,302,254,button,1,220,93,244
369.jpg,360,302,button,21,54,133,93
372.jpg,300,252,button,4,216,65,246
373.jpg,300,252,button,4,216,66,245
374.jpg,300,252,button,5,216,65,246
376.jpg,300,252,button,10,74,100,106
377.jpg,300,252,button,11,74,101,107
381.jpg,300,252,button,11,75,101,108
391.jpg,360,301,button,137,25,223,54
401.jpg,360,203,button,126,145,233,168
404.jpg,300,254,button,50,131,128,156
405.jpg,300,254,button,50,157,129,186
411.jpg,300,252,button,141,166,249,192
430.jpg,360,204,button,65,177,128,196
431.jpg,360,204,button,65,178,130,196
446.jpg,300,254,button,185,197,299,229
448.jpg,300,252,button,200,190,286,219
450.jpg,300,252,button,146,166,291,214
451.jpg,300,252,button,200,192,284,220
452.jpg,300,252,button,200,192,284,220
453.jpg,300,252,button,200,192,284,220
462.jpg,1000,1000,button,77,246,432,334
472.jpg,300,252,button,141,166,249,192
495.jpg,298,250,button,137,178,259,214
511.jpg,298,250,button,176,200,287,233
512.jpg,298,250,button,177,202,287,233
513.jpg,298,250,button,177,201,287,234
516.jpg,300,252,button,11,75,100,107
520.jpg,360,302,button,28,59,125,93
521.jpg,300,252,button,13,126,134,159
524.jpg,300,252,button,8,215,135,244
538.jpg,360,204,button,65,178,132,197
539.jpg,360,204,button,67,177,132,195
540.jpg,360,204,button,68,176,132,194
545.jpg,360,203,button,222,146,292,167
554.jpg,300,252,button,135,112,246,135
559.jpg,300,252,button,89,185,233,230
561.jpg,300,254,button,179,193,292,225
571.jpg,360,204,button,66,175,134,195
572.jpg,360,204,button,66,175,134,194
577.jpg,360,302,button,197,225,345,260
581.jpg,300,252,button,189,206,281,234
582.jpg,300,252,button,189,206,281,234
583.jpg,300,252,button,190,206,280,234
584.jpg,300,252,button,189,206,280,234
585.jpg,300,252,button,189,205,281,234
625.jpg,300,252,button,22,200,129,231
661.jpg,300,252,button,145,166,291,212
671.jpg,300,252,button,190,206,281,234
672.jpg,300,252,button,189,206,280,234
673.jpg,300,252,button,189,205,281,234
674.jpg,300,252,button,189,205,281,233
675.jpg,300,252,button,189,206,281,234
676.jpg,300,252,button,189,205,281,235
695.jpg,300,254,button,1,189,109,216
705.jpg,300,254,button,184,196,298,229
719.jpg,300,252,button,143,21,300,53
738.jpg,360,203,button,196,171,293,195
739.jpg,360,203,button,196,171,292,195
740.jpg,360,203,button,196,171,292,195
742.jpg,300,252,button,139,201,242,234
744.jpg,300,252,button,77,81,228,118
750.jpg,300,254,button,137,195,261,231
759.jpg,300,252,button,21,202,162,238
760.jpg,300,252,button,21,202,163,238
771.jpg,360,203,button,214,172,295,195
772.jpg,360,203,button,215,171,295,194
773.jpg,360,203,button,214,172,295,195
797.jpg,300,252,button,7,215,91,239
798.jpg,300,252,button,7,215,92,239
799.jpg,300,252,button,7,214,92,240
800.jpg,300,252,button,7,215,92,240
814.jpg,300,252,button,32,125,161,158
830.jpg,300,254,button,157,206,289,240
831.jpg,300,254,button,157,206,289,239
833.jpg,300,254,button,157,205,290,240
834.jpg,300,254,button,157,205,291,241
835.jpg,300,254,button,157,206,289,240
839.jpg,300,252,button,7,214,146,246
840.jpg,300,252,button,6,214,145,245
852.jpg,300,252,button,172,208,292,236
855.jpg,300,252,button,189,209,294,245
857.jpg,300,252,button,190,210,294,245
880.jpg,300,252,button,21,95,282,150
885.jpg,360,203,button,196,170,293,197
886.jpg,360,203,button,196,171,293,196
893.jpg,300,252,button,22,203,162,239
894.jpg,300,252,button,21,202,164,239
897.jpg,300,252,button,3,214,96,241
899.jpg,300,252,button,7,214,92,239
902.jpg,300,252,button,20,202,163,238
903.jpg,300,252,button,21,201,163,239
948.jpg,298,252,button,133,178,279,227
960.jpg,300,254,button,155,195,288,229
961.jpg,300,254,button,156,194,286,228
962.jpg,300,254,button,156,194,287,228
963.jpg,300,254,button,156,194,287,228
964.jpg,300,254,button,155,194,288,228
965.jpg,300,254,button,156,195,287,228
976.jpg,300,252,button,141,182,248,208
991.jpg,300,254,button,12,213,109,235
993.jpg,300,252,button,20,209,173,246
image_107.jpg,300,250,button,198,184,291,216
image_108.jpg,300,250,button,194,181,286,213
image_111.jpg,300,250,button,1,211,300,249
image_115.jpg,300,250,button,9,215,91,237
image_116.jpg,300,250,button,6,227,65,242
image_117.jpg,300,250,button,203,146,291,175
image_118.jpg,300,250,button,1,222,300,249
image_119.jpg,300,250,button,1,220,292,250
image_120.jpg,300,250,button,10,216,90,238
image_121.jpg,300,250,button,10,216,91,237
image_122.jpg,300,250,button,242,226,294,244
image_123.jpg,1250,1042,button,77,892,499,980
image_124.jpg,1250,1042,button,80,892,502,975
image_129.jpg,300,250,button,1,218,300,249
image_130.jpg,300,250,button,1,220,300,249
image_134.jpg,300,250,button,1,233,300,249
image_135.jpg,300,250,button,1,232,300,249
image_137.jpg,300,250,button,14,217,87,236
image_138.jpg,300,250,button,10,216,91,237
image_142.jpg,300,250,button,108,172,279,244
image_143.jpg,300,250,button,99,173,300,247
image_144.jpg,300,250,button,124,215,270,240
image_152.jpg,300,250,button,217,215,290,238
image_153.jpg,300,250,button,156,200,258,233
image_158.jpg,302,252,button,176,133,281,162
image_162.jpg,300,250,button,156,180,285,200
image_163.jpg,300,50,button,23,29,141,44
image_164.jpg,300,250,button,159,181,282,203
image_165.jpg,300,250,button,1,233,300,248
image_166.jpg,300,250,button,1,232,300,249
image_167.jpg,300,250,button,1,233,300,248
image_168.jpg,300,250,button,1,233,300,249
image_172.jpg,300,250,button,64,200,253,227
image_173.jpg,300,250,button,156,208,299,248
image_174.jpg,300,250,button,160,216,300,249
image_175.jpg,625,521,button,189,426,433,503
image_177.jpg,300,250,button,1,220,300,249
image_178.jpg,300,250,button,1,220,300,249
image_179.jpg,300,250,button,1,220,300,249
image_180.jpg,300,250,button,1,220,298,250
image_181.jpg,300,250,button,1,220,300,249
image_182.jpg,300,250,button,1,219,300,249
image_184.jpg,300,250,button,163,200,263,225
image_186.jpg,300,250,button,14,217,87,236
image_19.jpg,300,250,button,1,220,300,249
image_195.jpg,300,250,button,9,216,90,236
image_197.jpg,300,250,button,8,224,66,241
image_198.jpg,300,250,button,10,215,90,237
image_199.jpg,300,250,button,10,216,92,238
image_2.jpg,247,206,button,8,179,71,196
image_203.jpg,300,250,button,9,216,90,237
image_204.jpg,300,250,button,13,216,88,237
image_205.jpg,300,250,button,10,216,91,239
image_206.jpg,300,250,button,9,215,91,237
image_207.jpg,300,250,button,200,216,291,237
image_208.jpg,300,250,button,200,215,292,236
image_209.jpg,300,250,button,201,216,292,235
image_217.jpg,300,250,button,70,93,231,147
image_218.jpg,300,250,button,6,218,70,244
image_219.jpg,300,250,button,5,218,67,243
image_223.jpg,300,250,button,242,225,296,245
image_226.jpg,249,205,button,11,179,73,196
image_228.jpg,300,250,button,154,208,276,238
image_23.jpg,300,250,button,177,82,279,106
image_230.jpg,300,250,button,9,186,291,226
image_236.jpg,300,250,button,1,219,300,249
image_239.jpg,300,250,button,177,81,279,108
image_24.jpg,300,250,button,6,225,54,243
image_240.jpg,300,250,button,6,224,53,244
image_242.jpg,300,250,button,1,212,295,250
image_245.jpg,300,250,button,150,210,297,247
image_246.jpg,300,250,button,145,210,299,248
image_251.jpg,300,250,button,151,210,298,247
image_252.jpg,300,250,button,156,210,298,247
image_253.jpg,300,250,button,194,201,296,226
image_254.jpg,300,250,button,194,200,296,226
image_255.jpg,300,250,button,84,103,217,130
image_258.jpg,300,250,button,158,152,278,188
image_26.jpg,300,250,button,15,203,84,223
image_260.jpg,600,500,button,357,295,485,340
image_261.jpg,600,500,button,357,295,488,342
image_264.jpg,244,204,button,98,169,170,189
image_265.jpg,300,250,button,15,222,73,239
image_27.jpg,300,250,button,1,213,298,250
image_278.jpg,300,250,button,10,216,90,237
image_28.jpg,300,250,button,3,222,60,239
image_292.jpg,300,250,button,205,213,289,233
image_294.jpg,300,250,button,195,209,289,242
image_296.jpg,300,250,button,195,209,288,240
image_3.jpg,247,206,button,9,178,72,196
image_302.jpg,300,250,button,203,211,288,238
image_303.jpg,300,250,button,83,78,218,113
image_305.jpg,300,250,button,216,221,265,233
image_308.jpg,300,250,button,1,220,300,249
image_314.jpg,300,250,button,198,185,291,217
image_315.jpg,300,250,button,193,182,287,213
image_319.jpg,300,250,button,2,210,298,248
image_323.jpg,300,250,button,15,203,91,226
image_325.jpg,300,250,button,10,216,90,237
image_327.jpg,300,250,button,202,145,290,176
image_329.jpg,300,250,button,2,219,297,250
image_33.jpg,300,250,button,156,210,298,249
image_331.jpg,300,250,button,10,216,89,237
image_332.jpg,300,250,button,243,226,296,246
image_333.jpg,1250,1042,button,80,894,503,977
image_334.jpg,1250,1042,button,83,890,498,979
image_339.jpg,300,250,button,1,220,300,249
image_34.jpg,300,250,button,148,210,300,249
image_340.jpg,300,250,button,1,219,300,249
image_344.jpg,300,250,button,1,233,300,248
image_345.jpg,300,250,button,1,232,300,249
image_347.jpg,300,250,button,14,218,88,237
image_348.jpg,300,250,button,9,216,91,237
image_352.jpg,300,250,button,108,171,285,249
image_355.jpg,1152,957,button,487,826,1095,926
image_364.jpg,300,250,button,217,215,290,237
image_365.jpg,300,250,button,156,201,259,234
image_366.jpg,300,250,button,47,137,175,172
image_37.jpg,300,250,button,152,211,299,247
image_374.jpg,302,252,button,176,133,281,163
image_375.jpg,300,50,button,22,29,140,43
image_377.jpg,300,250,button,156,179,285,202
image_378.jpg,300,50,button,23,29,140,43
image_379.jpg,300,250,button,159,180,282,203
image_38.jpg,300,250,button,150,210,299,248
image_380.jpg,300,250,button,1,233,300,249
image_381.jpg,300,250,button,1,232,300,249
image_382.jpg,300,250,button,1,233,300,249
image_383.jpg,300,250,button,1,232,300,248
image_386.jpg,300,250,button,98,186,300,226
image_387.jpg,300,250,button,64,200,255,227
image_388.jpg,300,250,button,157,208,300,249
image_389.jpg,300,250,button,153,215,299,250
image_39.jpg,300,250,button,151,210,299,248
image_390.jpg,625,521,button,188,426,433,506
image_392.jpg,300,250,button,1,219,300,249
image_396.jpg,300,250,button,1,218,300,249
image_398.jpg,300,250,button,166,200,267,226
image_40.jpg,300,250,button,152,210,298,248
image_400.jpg,300,250,button,13,218,88,235
image_409.jpg,300,250,button,10,216,90,238
image_41.jpg,300,250,button,194,200,295,226
image_411.jpg,300,250,button,5,227,64,244
image_412.jpg,300,250,button,9,216,91,238
image_417.jpg,300,250,button,8,216,90,237
image_418.jpg,300,250,button,14,217,88,238
image_419.jpg,300,250,button,10,216,90,237
image_42.jpg,300,250,button,194,202,296,226
image_420.jpg,300,250,button,9,216,90,237
image_421.jpg,300,250,button,200,216,291,236
image_422.jpg,300,250,button,199,216,292,235
image_423.jpg,300,250,button,200,217,293,236
image_43.jpg,300,250,button,83,103,217,130
image_431.jpg,300,250,button,5,219,69,243
image_432.jpg,300,250,button,7,219,68,243
image_435.jpg,324,264,button,2,227,324,263
image_436.jpg,300,250,button,243,225,295,245
image_437.jpg,300,250,button,99,199,203,227
image_440.jpg,248,204,button,9,178,71,194
image_442.jpg,300,250,button,154,208,275,238
image_444.jpg,300,250,button,10,184,290,227
image_448.jpg,300,250,button,10,197,112,226
image_449.jpg,300,250,button,36,160,131,180
image_450.jpg,300,250,button,2,220,300,249
image_453.jpg,300,250,button,178,82,279,108
image_454.jpg,300,250,button,6,224,53,244
image_457.jpg,300,250,button,53,143,187,169
image_458.jpg,300,250,button,35,136,172,161
image_460.jpg,300,250,button,150,210,299,248
image_461.jpg,300,250,button,151,210,295,248
image_467.jpg,300,250,button,152,210,299,247
image_468.jpg,300,250,button,194,201,296,226
image_469.jpg,300,250,button,195,200,296,226
image_470.jpg,300,250,button,84,103,218,131
image_473.jpg,300,250,button,159,153,278,189
image_477.jpg,600,500,button,357,295,488,341
image_478.jpg,300,250,button,74,149,172,178
image_479.jpg,244,204,button,99,169,173,190
image_48.jpg,600,500,button,357,295,487,340
image_488.jpg,300,250,button,108,186,202,211
image_490.jpg,300,250,button,37,134,174,167
image_491.jpg,300,250,button,10,216,90,237
image_492.jpg,300,250,button,25,193,120,222
image_494.jpg,300,250,button,189,217,274,241
image_495.jpg,303,250,button,7,192,114,224
image_5.jpg,300,250,button,154,207,275,238
image_50.jpg,600,500,button,357,296,488,340
image_502.jpg,300,250,button,189,114,290,143
image_505.jpg,300,250,button,24,193,122,222
image_506.jpg,300,250,button,205,213,290,234
image_507.jpg,300,250,button,152,140,263,175
image_509.jpg,300,250,button,196,209,288,241
image_510.jpg,300,250,button,194,209,288,243
image_511.jpg,300,250,button,196,209,288,241
image_513.jpg,300,250,button,104,203,193,230
image_518.jpg,300,250,button,204,210,288,238
image_519.jpg,300,251,button,92,181,209,215
image_52.jpg,244,204,button,100,169,171,190
image_521.jpg,300,250,button,140,177,266,222
image_522.jpg,300,250,button,217,222,265,233
image_525.jpg,300,250,button,1,219,300,248
image_526.jpg,300,251,button,134,155,245,188
image_527.jpg,300,250,button,193,182,287,214
image_529.jpg,300,250,button,32,147,149,182
image_530.jpg,300,251,button,133,153,245,189
image_532.jpg,300,250,button,198,185,291,217
image_534.jpg,300,250,button,109,196,189,223
image_535.jpg,300,250,button,2,210,300,249
image_538.jpg,300,250,button,74,196,232,231
image_539.jpg,300,250,button,14,202,93,225
image_543.jpg,300,250,button,201,144,291,176
image_547.jpg,300,250,button,10,216,90,238
image_548.jpg,300,250,button,242,226,295,245
image_549.jpg,1250,1042,button,85,893,502,981
image_550.jpg,1250,1042,button,83,890,502,981
image_553.jpg,600,500,button,401,264,534,318
image_554.jpg,600,500,button,403,267,532,316
image_555.jpg,300,250,button,1,218,300,249
image_556.jpg,300,250,button,1,218,300,249
image_559.jpg,621,518,button,346,354,472,399
image_562.jpg,300,250,button,19,184,112,210
image_567.jpg,300,250,button,107,168,208,196
image_572.jpg,300,250,button,153,207,269,236
image_577.jpg,300,250,button,216,213,290,239
image_578.jpg,300,250,button,156,199,257,234
image_580.jpg,300,250,button,47,137,174,171
image_593.jpg,302,252,button,99,199,203,229
image_597.jpg,300,250,button,159,180,283,203
image_600.jpg,300,250,button,1,231,300,249
image_601.jpg,300,250,button,1,231,300,248
image_607.jpg,300,250,button,153,216,300,249
image_608.jpg,625,521,button,186,426,435,504
image_615.jpg,300,250,button,25,194,120,222
image_616.jpg,300,250,button,161,199,263,225
image_617.jpg,300,250,button,13,217,88,237
image_618.jpg,300,250,button,152,138,263,172
image_620.jpg,300,250,button,77,203,207,232
image_623.jpg,300,250,button,190,152,296,182
image_626.jpg,300,250,button,9,216,91,238
image_627.jpg,300,250,button,101,203,199,234
image_630.jpg,300,250,button,9,215,91,237
image_635.jpg,300,250,button,13,217,88,237
image_636.jpg,300,250,button,10,216,91,237
image_638.jpg,300,250,button,198,216,293,237
image_640.jpg,300,250,button,201,215,293,237
image_647.jpg,300,250,button,6,218,69,245
image_653.jpg,324,264,button,1,226,324,262
image_67.jpg,300,250,button,10,216,91,238
image_7.jpg,300,250,button,10,186,291,226
image_70.jpg,300,250,button,190,218,274,241
image_82.jpg,300,250,button,206,213,289,233
image_86.jpg,300,250,button,196,210,288,241
image_88.jpg,300,250,button,196,209,288,241
image_89.jpg,300,250,button,106,207,191,230
image_94.jpg,300,250,button,205,210,287,238
image_95.jpg,300,250,button,84,79,217,113
image_97.jpg,300,250,button,217,222,264,231
